%YAML 1.1
%TAG !u! tag:unity3d.com,2011:
--- !u!114 &11400000
MonoBehaviour:
  m_ObjectHideFlags: 0
  m_PrefabParentObject: {fileID: 0}
  m_PrefabInternal: {fileID: 0}
  m_GameObject: {fileID: 0}
  m_Enabled: 1
  m_EditorHideFlags: 0
  m_Script: {fileID: 11500000, guid: f8e26154288b43a4db64dadfb568ffca, type: 3}
  m_Name: sector_hallwayRT
  m_EditorClassIdentifier: 
  sectorIcon: {fileID: 21300014, guid: bd68d5400c479ce418192d60ac3422cd, type: 3}
  SectorType: 8
  SectorPrefab: {fileID: 1067110461343982, guid: a17ff289a6bc89346890b50373db2207,
    type: 2}
  DoNotLoad: 1
