%YAML 1.1
%TAG !u! tag:unity3d.com,2011:
--- !u!114 &11400000
MonoBehaviour:
  m_ObjectHideFlags: 0
  m_PrefabParentObject: {fileID: 0}
  m_PrefabInternal: {fileID: 0}
  m_GameObject: {fileID: 0}
  m_Enabled: 1
  m_EditorHideFlags: 0
  m_Script: {fileID: 11500000, guid: 690b48b2a87c4bb46ad779c7f14983b2, type: 3}
  m_Name: data_character_c
  m_EditorClassIdentifier: 
  characterRating: 0
  totalStatPoint: 10
